…
## # A tibble: 237 x 11
##    Employee EducLev JobGrade YrHired YrBorn Gender PerfRev ITJob Salary YrsExper
##       <dbl> <chr>      <dbl>   <dbl>  <dbl>  <dbl>   <dbl> <dbl>  <dbl>    <dbl>
##  1        1 5              6    1988   1957      1       5     0    122       29
##  2        2 4              1    2009   1959      0       6     1     53        8
##  3        3 4              1    2013   1961      0       1     1     61        4
##  4        4 4              3    1992   1961      0       7     1     78       25
##  5        5 5              6    2005   1961      1       7     0    104       32
##  6        7 5              6    1991   1962      1       6     0    138       33
##  7        8 4              1    2001   1963      0       4     1     76       16
##  8        9 4              2    2003   1963      0       5     1     61       14
##  9       10 4              3    1996   1963      0       3     0     72       21
## 10       11 3              6    2013   1963      1       2     0    134       34
## # ... with 227 more rows, and 1 more variable: Age <dbl>
…
